Getting started with {geniusr}
…
From the geniusr package, use the get_lyrics_search() function to retrieve lyrics from a song based on the artist name and song title. For example, the code below returns a tibble containing the lyrics for the song Dont Wanna Try, by the band Saskwatch (an awesome Melbourne band that is awesome).

# Load {dplyr} for data wrangling
library(dplyr)

get_lyrics_search(
  artist_name = "Saskwatch",
  song_title = "Don't Wanna Try")

## # A tibble: 33 x 5
##    line                section_name       section_artist song_name   artist_name
##    <chr>               <chr>              <chr>          <chr>       <chr>      
##  1 Another day in lov~ Another day in lo~ Saskwatch      Dont Wann~ Saskwatch  
##  2 Don't you know it'~ Another day in lo~ Saskwatch      Dont Wann~ Saskwatch  
##  3 And I guess that i~ Another day in lo~ Saskwatch      Dont Wann~ Saskwatch  
##  4 To give up all tha~ Another day in lo~ Saskwatch      Dont Wann~ Saskwatch  
##  5 Don't you know, I ~ Another day in lo~ Saskwatch      Dont Wann~ Saskwatch  
##  6 Each and every day  Another day in lo~ Saskwatch      Dont Wann~ Saskwatch  
##  7 But I'm tired of b~ Another day in lo~ Saskwatch      Dont Wann~ Saskwatch  
##  8 So boy, what's it ~ Another day in lo~ Saskwatch      Dont Wann~ Saskwatch  
##  9 I've given all my ~ Another day in lo~ Saskwatch      Dont Wann~ Saskwatch  
## 10 But I don't wanna ~ Another day in lo~ Saskwatch      Dont Wann~ Saskwatch  
## # ... with 23 more rows
